{
  "uid" : "3d4f44aca39afa42",
  "name" : "addFunds[CUSTOMER,406a6ef6-8751-4003-99ec-820feb6facd5,0,400]",
  "title" : "Update balance",
  "time" : {
    "start" : 1482120825445,
    "stop" : 1482120825527,
    "duration" : 82
  },
  "summary" : {
    "attachments" : 1,
    "steps" : 0
  },
  "failure" : null,
  "description" : {
    "value" : "Update customer's balance via REST API",
    "type" : "TEXT"
  },
  "severity" : "CRITICAL",
  "status" : "PASSED",
  "testId" : null,
  "suite" : {
    "uid" : "b4b1dfe4fa4a8733",
    "name" : "Default Suite : endpoint-tests",
    "title" : "Default Suite : endpoint-tests"
  },
  "steps" : [ ],
  "attachments" : [ {
    "title" : "Response: Cannot put money someone else's account",
    "source" : "a95d6afd-cd69-4a58-8e50-e4b13fa80c14-attachment.txt",
    "type" : "text/plain",
    "size" : 49,
    "uid" : "af32432ff3bbdb94"
  } ],
  "issues" : [ ],
  "labels" : [ {
    "name" : "severity",
    "value" : "critical"
  }, {
    "name" : "feature",
    "value" : "Customer management"
  }, {
    "name" : "host",
    "value" : "ПК"
  }, {
    "name" : "thread",
    "value" : "8056@ПК.main(1)"
  }, {
    "name" : "suite-name",
    "value" : "Default Suite : endpoint-tests"
  }, {
    "name" : "suite-title",
    "value" : "Default Suite : endpoint-tests"
  }, {
    "name" : "framework",
    "value" : "TestNG"
  }, {
    "name" : "language",
    "value" : "JAVA"
  } ],
  "parameters" : [ ]
}