{
  "uid" : "c689595a4f2a13a2",
  "name" : "changeUserRoles[ADMIN,c258e188-c7b3-4ecd-b098-65d96d87141e,401]",
  "title" : "Change user roles",
  "time" : {
    "start" : 1482120823793,
    "stop" : 1482120823826,
    "duration" : 33
  },
  "summary" : {
    "attachments" : 1,
    "steps" : 0
  },
  "failure" : null,
  "description" : {
    "value" : "Change user's roles via REST API",
    "type" : "TEXT"
  },
  "severity" : "NORMAL",
  "status" : "PASSED",
  "testId" : null,
  "suite" : {
    "uid" : "b4b1dfe4fa4a8733",
    "name" : "Default Suite : endpoint-tests",
    "title" : "Default Suite : endpoint-tests"
  },
  "steps" : [ ],
  "attachments" : [ {
    "title" : "Response: You cannot access this resource",
    "source" : "f8bdaddd-b017-4e16-8cea-42df8475e186-attachment.txt",
    "type" : "text/plain",
    "size" : 41,
    "uid" : "7a693886002a1983"
  } ],
  "issues" : [ ],
  "labels" : [ {
    "name" : "severity",
    "value" : "normal"
  }, {
    "name" : "feature",
    "value" : "User management"
  }, {
    "name" : "host",
    "value" : "ПК"
  }, {
    "name" : "thread",
    "value" : "8056@ПК.main(1)"
  }, {
    "name" : "suite-name",
    "value" : "Default Suite : endpoint-tests"
  }, {
    "name" : "suite-title",
    "value" : "Default Suite : endpoint-tests"
  }, {
    "name" : "framework",
    "value" : "TestNG"
  }, {
    "name" : "language",
    "value" : "JAVA"
  } ],
  "parameters" : [ ]
}